[
    {
        "title": "Was this one of those out of season April fools joke ?",
        "content": null,
        "score": "830",
        "comments": [
            "My biggest issue with Vashj is that you have to draw her twice and by that point there is a very big chance that you have already drawn a lot of the cards that you would want her to discount.",
            "The non prime version of solarian is Also Better than lady vashj",
            "Still sad I got vashj in gold"
        ]
    },
    {
        "title": "Please tell me that this is an out-of-season April's Fool joke",
        "content": null,
        "score": "842",
        "comments": [
            "Gg m8 it\u2019s time to no longer play your favorite plane: G-91 YS. Gaijin sent me specifically to tell you that.",
            "You'll swallow it up, just like everyone else. They fucked top teir with heatfs, constant promises of raising BR to fix repair costs and ALWAYS lying to our faces yet none of these apologist CCs will do Jack shit about it.Even if they do, watch them walk a fine line. Fuck gaijin and anyone who spins these changes as something positive or good.",
            "Have you seen the me 163 B-0?! 8.7 for a ww2 bottle rocket meant to fight propeller bombers. Now it can face 1960's and 1970's jets with advanced AAM's."
        ]
    },
    {
        "title": "Just heard about how the boys pulled an April fools joke and opened the show with bobby on keyboards, Brent and Jerry on drums, Mickey singing and Phil on lead guitar..here is the audio..",
        "content": null,
        "score": "54",
        "comments": [
            "They also had Barney the Dinosaur play bass for the opener on April Fools in 93https://youtu.be/1IHAMiBdga0",
            "I was at that 4.1.80 show. After they finished this song, they left the stage and turned the house lights up in the theatre for a minute. Then turned them off, came back on stage and re-did the song, with everyone on their normal instruments, saying April Fools...",
            "I bet that put a few spunions into dark, weird place.  Hilarious but cruel."
        ]
    }
]
